peak_x,peak_y,peak_z,newlabel,newregion_of_peak,newkeep
-41,28,22,Middle Frontal Gyrus BA 46,Frontal,TRUE
-8,-74,2,Cuneus BA 18,Occipital,TRUE
-19,-73,22,Cuneus BA 17,Occipital,TRUE
23,-20,-14,Parahippocampal Gyrus BA 28,Temporal,TRUE
